lab_2_exercises_redo
…
#2
#There are 979 records in stad 1.
tree_count1 <- tree_dat %>% 
  filter(standID == 1)
print(tree_count1)

# A tibble: 979 × 8
   treeID standID stand  year species   age   inc rad_ib
    <dbl>   <dbl> <chr> <dbl> <chr>   <dbl> <dbl>  <dbl>
 1      1       1 A1     1960 ABBA        1 0.93    10.8
 2      1       1 A1     1961 ABBA        2 0.95    11.7
 3      1       1 A1     1962 ABBA        3 0.985   12.7
 4      1       1 A1     1963 ABBA        4 0.985   13.7
 5      1       1 A1     1964 ABBA        5 0.715   14.4
 6      1       1 A1     1965 ABBA        6 0.84    15.3
 7      1       1 A1     1966 ABBA        7 0.685   15.9
 8      1       1 A1     1967 ABBA        8 0.94    16.9
 9      1       1 A1     1968 ABBA        9 1.16    18.0
10      1       1 A1     1969 ABBA       10 0.775   18.8
# ℹ 969 more rows
…
# A tibble: 5 × 8
  treeID standID stand  year species   age   inc rad_ib
   <dbl>   <dbl> <chr> <dbl> <chr>   <dbl> <dbl>  <dbl>
1     24       2 A2     2001 PIRE      263 0.21    307.
2     25       2 A2     2001 PIRE      259 0.28    156.
3   1595      24 F1     2001 FRNI      212 0.579   156.
4   1598      24 F1     2001 FRNI      206 0.394   130.
5   1712      26 F3     2001 FRNI      206 0.168   154.

#7
tree_dat %>% 
  filter(year == 2002) %>% 
  slice_sample(prop = .3)

# A tibble: 687 × 8
   treeID standID stand  year species   age   inc rad_ib
    <dbl>   <dbl> <chr> <dbl> <chr>   <dbl> <dbl>  <dbl>
 1    135       5 A6     2002 PIMA       79 0.535  208. 
 2   1788      28 G2     2002 ACSA       72 0.2    111. 
 3   1737      27 G1     2002 ACSA      102 0.214   65.8
 4   1706      26 F3     2002 BEPA       69 0.458   88.1
 5    111       4 A5     2002 ABBA       43 0.24    65.6
 6    143       5 A6     2002 ABBA       51 0.55    71.9
 7   1380      20 D6     2002 PIMA       64 0.595   66.5
 8   1747      28 G2     2002 ACSA       57 0.57    85.3
 9    267       6 B1     2002 PIMA       32 1.1     59.7
10   1429      21 E1     2002 QURU       58 0.29    55.0
# ℹ 677 more rows
…
